value_id,label,feature,comment,canonical_order
perf,perfect,aspect,,3
pfv,perfective,aspect,,2
m,masculine,gender,,1
cond,conditional,mood,,2
imp,imperative,mood,,3
ind,indicative,mood,,1
sbjv,subjunctive,mood,,4
sg,singular,number,,1
fut,future,tense,,3
impf,imperfective,aspect,,1
prs,present,tense,,1
pst,past,tense,,2
per,personal,valency,,1
ger,gerund,verbform,,2
inf,infinitive,verbform,,1
ptcp,participle,verbform,,3
1pl,first person plural,person/number,,4
1sg,first person singular,person/number,,1
2pl,second person plural,person/number,,5
2sg,second person singular,person/number,,2
3pl,third person plural,person/number,,6
3sg,third person singular,person/number,,3
